\relax 
\providecommand\hyper@newdestlabel[2]{}
\providecommand\HyperFirstAtBeginDocument{\AtBeginDocument}
\HyperFirstAtBeginDocument{\ifx\hyper@anchor\@undefined
\global\let\oldcontentsline\contentsline
\gdef\contentsline#1#2#3#4{\oldcontentsline{#1}{#2}{#3}}
\global\let\oldnewlabel\newlabel
\gdef\newlabel#1#2{\newlabelxx{#1}#2}
\gdef\newlabelxx#1#2#3#4#5#6{\oldnewlabel{#1}{{#2}{#3}}}
\AtEndDocument{\ifx\hyper@anchor\@undefined
\let\contentsline\oldcontentsline
\let\newlabel\oldnewlabel
\fi}
\fi}
\global\let\hyper@last\relax 
\gdef\HyperFirstAtBeginDocument#1{#1}
\providecommand\HyField@AuxAddToFields[1]{}
\providecommand\HyField@AuxAddToCoFields[2]{}
\@writefile{toc}{\contentsline {section}{\numberline {1}Runtime dependence on matrix an block size}{1}{section.1}}
\@writefile{toc}{\contentsline {subsection}{\numberline {1.1}Naive $ijk$-algorithm}{2}{subsection.1.1}}
\@writefile{toc}{\contentsline {subsection}{\numberline {1.2}Blocked $ijk$-algorithm}{2}{subsection.1.2}}
\@writefile{toc}{\contentsline {subsection}{\numberline {1.3}Blocked $kij$-algorithm with \textsc  {Atlas}}{2}{subsection.1.3}}
\@writefile{toc}{\contentsline {subsection}{\numberline {1.4}Pure \textsc  {Atlas} routine}{2}{subsection.1.4}}
\@writefile{toc}{\contentsline {section}{\numberline {2}Task 2}{2}{section.2}}
\providecommand*\caption@xref[2]{\@setref\relax\@undefined{#1}}
\newlabel{ijk_cloud}{{1a}{3}{Cloud plot for the naive $ijk$-algorithm\relax }{figure.caption.1}{}}
\newlabel{sub@ijk_cloud}{{a}{3}{Cloud plot for the naive $ijk$-algorithm\relax }{figure.caption.1}{}}
\newlabel{ijk_scatter}{{1b}{3}{Scatter plot for the naive $ijk$-algorithm\relax }{figure.caption.1}{}}
\newlabel{sub@ijk_scatter}{{b}{3}{Scatter plot for the naive $ijk$-algorithm\relax }{figure.caption.1}{}}
\@writefile{lof}{\contentsline {figure}{\numberline {1}{\ignorespaces Plots for the naive $ijk$-algorithm\relax }}{3}{figure.caption.1}}
\newlabel{blocked_ijk_cloud}{{2a}{4}{Cloud plot for the blocked $ijk$-algorithm\relax }{figure.caption.2}{}}
\newlabel{sub@blocked_ijk_cloud}{{a}{4}{Cloud plot for the blocked $ijk$-algorithm\relax }{figure.caption.2}{}}
\newlabel{blocked_ijk_scatter}{{2b}{4}{Scatter plot for the blocked $ijk$-algorithm\relax }{figure.caption.2}{}}
\newlabel{sub@blocked_ijk_scatter}{{b}{4}{Scatter plot for the blocked $ijk$-algorithm\relax }{figure.caption.2}{}}
\@writefile{lof}{\contentsline {figure}{\numberline {2}{\ignorespaces Plots for the blocked $ijk$-algorithm\relax }}{4}{figure.caption.2}}
\newlabel{kij_cloud}{{3a}{5}{Cloud plot for $kij$ with \textsc {Atlas} routine\relax }{figure.caption.3}{}}
\newlabel{sub@kij_cloud}{{a}{5}{Cloud plot for $kij$ with \textsc {Atlas} routine\relax }{figure.caption.3}{}}
\newlabel{kij_scatter}{{3b}{5}{Scatter plot for $kij$ with \textsc {Atlas} routine\relax }{figure.caption.3}{}}
\newlabel{sub@kij_scatter}{{b}{5}{Scatter plot for $kij$ with \textsc {Atlas} routine\relax }{figure.caption.3}{}}
\@writefile{lof}{\contentsline {figure}{\numberline {3}{\ignorespaces Plots for the blocked $kij$-algorithm with \textsc  {Atlas} help\relax }}{5}{figure.caption.3}}
\newlabel{atlas_cloud}{{4a}{6}{Cloud plot for \textsc {Atlas} routine\relax }{figure.caption.4}{}}
\newlabel{sub@atlas_cloud}{{a}{6}{Cloud plot for \textsc {Atlas} routine\relax }{figure.caption.4}{}}
\newlabel{atlas_scatter}{{4b}{6}{Scatter plot for \textsc {Atlas} routine\relax }{figure.caption.4}{}}
\newlabel{sub@atlas_scatter}{{b}{6}{Scatter plot for \textsc {Atlas} routine\relax }{figure.caption.4}{}}
\@writefile{lof}{\contentsline {figure}{\numberline {4}{\ignorespaces Plots for the pure \textsc  {Atlas} routine\relax }}{6}{figure.caption.4}}
\newlabel{spuijk}{{5a}{7}{Speed-up of blocked $ijk$ over naive $ijk$\relax }{figure.caption.5}{}}
\newlabel{sub@spuijk}{{a}{7}{Speed-up of blocked $ijk$ over naive $ijk$\relax }{figure.caption.5}{}}
\newlabel{spuijk_top}{{5b}{7}{Top view of the previous plot\relax }{figure.caption.5}{}}
\newlabel{sub@spuijk_top}{{b}{7}{Top view of the previous plot\relax }{figure.caption.5}{}}
\newlabel{spukij}{{6a}{8}{Speed-up of blocked $kij$ over naive $ijk$\relax }{figure.caption.6}{}}
\newlabel{sub@spukij}{{a}{8}{Speed-up of blocked $kij$ over naive $ijk$\relax }{figure.caption.6}{}}
\newlabel{spukij_top}{{6b}{8}{Top view of the previous plot\relax }{figure.caption.6}{}}
\newlabel{sub@spukij_top}{{b}{8}{Top view of the previous plot\relax }{figure.caption.6}{}}
\@writefile{toc}{\contentsline {section}{\numberline {3}Comparison with the \textsc  {Atlas} reference}{9}{section.3}}
\newlabel{spuakij}{{7a}{10}{Speed-up of \textsc {Atlas} routine over blocked $kij$\relax }{figure.caption.7}{}}
\newlabel{sub@spuakij}{{a}{10}{Speed-up of \textsc {Atlas} routine over blocked $kij$\relax }{figure.caption.7}{}}
\newlabel{spuakij_top}{{7b}{10}{Top view of the previous plot\relax }{figure.caption.7}{}}
\newlabel{sub@spuakij_top}{{b}{10}{Top view of the previous plot\relax }{figure.caption.7}{}}
