0.001550000000000      nan      nan      nan      nan      nan      nan      nan      nan      nan      nan 
0.000004000000000 0.000004000000000      nan      nan      nan      nan      nan      nan      nan      nan      nan 
0.000002000000000 0.000002000000000 0.000002000000000      nan      nan      nan      nan      nan      nan      nan      nan 
0.000004000000000 0.000004000000000 0.000004000000000 0.000004000000000      nan      nan      nan      nan      nan      nan      nan 
0.000044000000000 0.000044000000000 0.000044000000000 0.000044000000000 0.000044000000000      nan      nan      nan      nan      nan      nan 
0.000111000000000 0.000111000000000 0.000111000000000 0.000111000000000 0.000111000000000 0.000111000000000      nan      nan      nan      nan      nan 
0.000583000000000 0.000583000000000 0.000583000000000 0.000583000000000 0.000583000000000 0.000583000000000 0.000583000000000      nan      nan      nan      nan 
0.001902000000000 0.001902000000000 0.001902000000000 0.001902000000000 0.001902000000000 0.001902000000000 0.001902000000000 0.001902000000000      nan      nan      nan 
0.014358000000000 0.014358000000000 0.014358000000000 0.014358000000000 0.014358000000000 0.014358000000000 0.014358000000000 0.014358000000000 0.014358000000000      nan      nan 
0.110232000000000 0.110232000000000 0.110232000000000 0.110232000000000 0.110232000000000 0.110232000000000 0.110232000000000 0.110232000000000 0.110232000000000 0.110232000000000      nan 
0.799309000000000 0.799309000000000 0.799309000000000 0.799309000000000 0.799309000000000 0.799309000000000 0.799309000000000 0.799309000000000 0.799309000000000 0.799309000000000 0.799309000000000 
