0.000352000000000      nan      nan      nan      nan      nan      nan      nan      nan      nan      nan 
0.000002000000000 0.000001000000000      nan      nan      nan      nan      nan      nan      nan      nan      nan 
0.000008000000000 0.000001000000000 0.000001000000000      nan      nan      nan      nan      nan      nan      nan      nan 
0.000054000000000 0.000026000000000 0.000003000000000 0.000003000000000      nan      nan      nan      nan      nan      nan      nan 
0.000403000000000 0.000067000000000 0.000027000000000 0.000021000000000 0.000048000000000      nan      nan      nan      nan      nan      nan 
0.003362000000000 0.000527000000000 0.000149000000000 0.000146000000000 0.000135000000000 0.000133000000000      nan      nan      nan      nan      nan 
0.013833000000000 0.001925000000000 0.000747000000000 0.000591000000000 0.000473000000000 0.000398000000000 0.000555000000000      nan      nan      nan      nan 
0.098625000000000 0.015095000000000 0.005956000000000 0.005069000000000 0.003674000000000 0.003286000000000 0.002529000000000 0.001968000000000      nan      nan      nan 
0.782335000000000 0.137628000000000 0.061168000000000 0.059582000000000 0.036760000000000 0.039767000000000 0.025097000000000 0.015354000000000 0.013535000000000      nan      nan 
6.282496000000000 1.045055000000000 0.479674000000000 0.451018000000000 0.261247000000000 0.214322000000000 0.129680000000000 0.114107000000000 0.105952000000000 0.102128000000000      nan 
53.565486999999997 9.159122000000000 4.215304000000000 3.895982000000000 2.125694000000000 1.774953000000000 1.123680000000000 1.064379000000000 0.966280000000000 0.837436000000000 0.890323000000000 
