0.000000000000000      nan      nan      nan      nan      nan      nan      nan      nan      nan      nan 
0.000002000000000 0.000000000000000      nan      nan      nan      nan      nan      nan      nan      nan      nan 
0.000008000000000 0.000002000000000 0.000001000000000      nan      nan      nan      nan      nan      nan      nan      nan 
0.000061000000000 0.000011000000000 0.000005000000000 0.000003000000000      nan      nan      nan      nan      nan      nan      nan 
0.000485000000000 0.000071000000000 0.000028000000000 0.000020000000000 0.000021000000000      nan      nan      nan      nan      nan      nan 
0.002848000000000 0.000288000000000 0.000118000000000 0.000093000000000 0.000105000000000 0.000060000000000      nan      nan      nan      nan      nan 
0.013392000000000 0.001874000000000 0.000746000000000 0.000591000000000 0.000474000000000 0.000397000000000 0.000305000000000      nan      nan      nan      nan 
0.106200000000000 0.016854000000000 0.006198000000000 0.004994000000000 0.003697000000000 0.003153000000000 0.001985000000000 0.001708000000000      nan      nan      nan 
0.938532000000000 0.160646000000000 0.063397000000000 0.053959000000000 0.033977000000000 0.026894000000000 0.016425000000000 0.013918000000000 0.012989000000000      nan      nan 
19.133861000000000 2.781400000000000 0.739389000000000 0.526441000000000 0.283478000000000 0.247854000000000 0.132340000000000 0.129300000000000 0.111412000000000 0.109167000000000      nan 
156.752947000000006 25.075970999999999 6.365361000000000 5.305265000000000 2.357862000000000 1.902700000000000 1.092286000000000 0.951553000000000 0.853777000000000 0.824840000000000 0.800863000000000 
